<?xml version="1.0" encoding="utf-8"?>
<svg xmlns="http://www.w3.org/2000/svg" viewBox="0 0 20.4 20.4">
<defs><style>.cls-1{fill:none;stroke:#1d1d1b;stroke-linecap:round;stroke-linejoin:round;stroke-width:1.5px;}.cls-2{fill:#1d1d1b;}</style></defs>
<g>
  <circle class="cls-1" cx="10.2" cy="10.2" r="9.45"/>
  <path class="cls-2" d="M9.11,6.13a1,1,0,0,1,1.09-1,1,1,0,1,1,0,2A1,1,0,0,1,9.11,6.13Zm.2,2.32h1.76v7.09H9.31Z"/>
</g>
</svg>
